[gd_scene load_steps=6 format=2]

[ext_resource path="res://assets/textures/stage/airadventurelevel4.png" type="Texture" id=1]
[ext_resource path="res://game/game_logic/Grid.tscn" type="PackedScene" id=2]
[ext_resource path="res://game/entities/Player.tscn" type="PackedScene" id=3]
[ext_resource path="res://game/user_interface/HUD.tscn" type="PackedScene" id=4]
[ext_resource path="res://game/entities/NPC.tscn" type="PackedScene" id=5]

[node name="Main" type="Node"]

[node name="background" type="TextureRect" parent="."]
anchor_right = 1.0
anchor_bottom = 1.0
margin_right = 215.0
margin_bottom = 52.0
mouse_filter = 0
texture = ExtResource( 1 )
expand = true

[node name="Grid" parent="." instance=ExtResource( 2 )]
top_left_offset = Vector2( 0.2, 0.4 )
bottom_right_offset = Vector2( 0.1, 0.2 )

[node name="Player" parent="." instance=ExtResource( 3 )]
editor/display_folded = true
collision_layer = 1
collision_mask = 1
skill_a = 3
skill_y = 5

[node name="HUD" parent="." instance=ExtResource( 4 )]

[node name="NPC" parent="." instance=ExtResource( 5 )]
collision_layer = 1
collision_mask = 1
skill_a = 3
skill_b = 3
skill_x = 1
skill_y = 5
max_hp = 150

[node name="NPC2" parent="." instance=ExtResource( 5 )]
collision_layer = 1
collision_mask = 1
grid_pos = Vector2( 5, 0 )
skill_a = 2
skill_x = 3
skill_y = 3
max_hp = 150
