[gd_scene load_steps=4 format=2]

[ext_resource path="res://game/entities/Entity.tscn" type="PackedScene" id=1]
[ext_resource path="res://game/entities/Player.gd" type="Script" id=2]
[ext_resource path="res://assets/sprites/w_000.png" type="Texture" id=3]

[node name="Player" instance=ExtResource( 1 )]
script = ExtResource( 2 )
is_left = true
skill_a = 2
skill_b = 1
skill_x = 0
skill_y = 0

[node name="sprite" parent="." index="0"]
position = Vector2( 0, -0.893112 )
z_index = 1
texture = ExtResource( 3 )
flip_h = true

[node name="stats" parent="." index="3"]
editor/display_folded = false
visible = false
margin_left = 92.0
margin_top = 32.0
margin_right = 132.0
margin_bottom = 72.0

[node name="hp" parent="stats" index="0"]
margin_left = -4.0
margin_right = 894.0
rect_scale = Vector2( -0.2, 0.2 )

[node name="label" parent="stats" index="1"]
visible = true
margin_left = -214.0
margin_top = 2.0
margin_right = -165.0
margin_bottom = 26.0

[node name="skill_origin" parent="." index="4"]
position = Vector2( 34.2471, -16.6479 )
